<svg width="22" height="24" viewBox="0 0 22 24" fill="none" xmlns="http://www.w3.org/2000/svg">
<path d="M0 21C0 19.6667 2.64 16 11 16C19.36 16 22 19.6667 22 21C22 22.3333 17.6 24 11 24C4.4 24 0 22.3333 0 21Z" fill="white"/>
<circle cx="11" cy="6" r="6" fill="white" fill-opacity="0.8"/>
</svg>
